<?xml version="1.0" encoding="UTF-8" standalone="no"?>
<!-- Generator: Adobe Illustrator 19.0.0, SVG Export Plug-In . SVG Version: 6.00 Build 0)  -->

<svg
   xmlns:dc="http://purl.org/dc/elements/1.1/"
   xmlns:cc="http://creativecommons.org/ns#"
   xmlns:rdf="http://www.w3.org/1999/02/22-rdf-syntax-ns#"
   xmlns:svg="http://www.w3.org/2000/svg"
   xmlns="http://www.w3.org/2000/svg"
   xmlns:sodipodi="http://sodipodi.sourceforge.net/DTD/sodipodi-0.dtd"
   xmlns:inkscape="http://www.inkscape.org/namespaces/inkscape"
   version="1.1"
   id="Capa_1"
   x="0px"
   y="0px"
   viewBox="0 0 58 58"
   style="enable-background:new 0 0 58 58;"
   xml:space="preserve"
   sodipodi:docname="iconsvg.svg"
   inkscape:version="0.92.3 (2405546, 2018-03-11)"><metadata
   id="metadata53"><rdf:RDF><cc:Work
       rdf:about=""><dc:format>image/svg+xml</dc:format><dc:type
         rdf:resource="http://purl.org/dc/dcmitype/StillImage" /><dc:title></dc:title></cc:Work></rdf:RDF></metadata><defs
   id="defs51" /><sodipodi:namedview
   pagecolor="#ffffff"
   bordercolor="#666666"
   borderopacity="1"
   objecttolerance="10"
   gridtolerance="10"
   guidetolerance="10"
   inkscape:pageopacity="0"
   inkscape:pageshadow="2"
   inkscape:window-width="2216"
   inkscape:window-height="1401"
   id="namedview49"
   showgrid="false"
   inkscape:zoom="16.275862"
   inkscape:cx="18.004929"
   inkscape:cy="30.521623"
   inkscape:window-x="1976"
   inkscape:window-y="379"
   inkscape:window-maximized="0"
   inkscape:current-layer="Capa_1" />







<path
   style="fill:#000000;stroke-width:0.90594"
   d="m 7.121153,1.9395694 c -10e-8,18.6862496 0,37.3724996 0,56.0587506 14.585898,0 29.171796,0 43.757694,0 0,-19.332214 0,-38.664429 0,-57.99664034 -14.585898,0 -29.171796,0 -43.7576941,0 v 0.9689449 z"
   id="rect3793-7"
   inkscape:connector-curvature="0" /><rect
   style="fill:#cccccc;stroke-width:0.90594"
   id="rect3793"
   width="39.881214"
   height="54.121628"
   x="9.0593929"
   y="1.9391861" />
<g
   id="g18">
</g>
<g
   id="g20">
</g>
<g
   id="g22">
</g>
<g
   id="g24">
</g>
<g
   id="g26">
</g>
<g
   id="g28">
</g>
<g
   id="g30">
</g>
<g
   id="g32">
</g>
<g
   id="g34">
</g>
<g
   id="g36">
</g>
<g
   id="g38">
</g>
<g
   id="g40">
</g>
<g
   id="g42">
</g>
<g
   id="g44">
</g>
<g
   id="g46">
</g>
<g
   id="g3835"
   transform="matrix(0.87954085,0,0,0.93313155,2.6832715,-1.8456608)"><g
     transform="translate(-1.6588983,-0.30720339)"
     id="g3803"><path
       inkscape:connector-curvature="0"
       style="fill:#0000ff"
       d="m 17.622881,23.06144 c -0.257,0 -0.514,-0.099 -0.708,-0.293 l -2,-2 c -0.391,-0.391 -0.391,-1.023 0,-1.414 0.391,-0.391 1.023,-0.391 1.414,0 l 1.367,1.367 4.301,-3.441 c 0.43,-0.345 1.061,-0.275 1.405,0.156 0.345,0.432 0.275,1.061 -0.156,1.406 l -5,4 c -0.182,0.147 -0.403,0.219 -0.623,0.219 z"
       id="path8" /><rect
       style="fill:#000000;stroke-width:1.12625766"
       id="rect3795"
       width="23.224577"
       height="3.5635593"
       x="25.313559"
       y="18.279585" /></g><g
     id="g3809"
     transform="translate(-1.6588983,8.5607353)"><path
       id="path3805"
       d="m 17.622881,23.06144 c -0.257,0 -0.514,-0.099 -0.708,-0.293 l -2,-2 c -0.391,-0.391 -0.391,-1.023 0,-1.414 0.391,-0.391 1.023,-0.391 1.414,0 l 1.367,1.367 4.301,-3.441 c 0.43,-0.345 1.061,-0.275 1.405,0.156 0.345,0.432 0.275,1.061 -0.156,1.406 l -5,4 c -0.182,0.147 -0.403,0.219 -0.623,0.219 z"
       style="fill:#0000ff"
       inkscape:connector-curvature="0" /><rect
       y="18.279585"
       x="25.313559"
       height="3.5635593"
       width="23.224577"
       id="rect3807"
       style="fill:#000000;stroke-width:1.12625766" /></g><g
     transform="translate(-1.6588983,17.428673)"
     id="g3815"><path
       inkscape:connector-curvature="0"
       style="fill:#0000ff"
       d="m 17.622881,23.06144 c -0.257,0 -0.514,-0.099 -0.708,-0.293 l -2,-2 c -0.391,-0.391 -0.391,-1.023 0,-1.414 0.391,-0.391 1.023,-0.391 1.414,0 l 1.367,1.367 4.301,-3.441 c 0.43,-0.345 1.061,-0.275 1.405,0.156 0.345,0.432 0.275,1.061 -0.156,1.406 l -5,4 c -0.182,0.147 -0.403,0.219 -0.623,0.219 z"
       id="path3811" /><rect
       style="fill:#000000;stroke-width:1.12625766"
       id="rect3813"
       width="23.224577"
       height="3.5635593"
       x="25.313559"
       y="18.279585" /></g><g
     id="g3821"
     transform="translate(-1.6588983,26.296611)"><path
       id="path3817"
       d="m 17.622881,23.06144 c -0.257,0 -0.514,-0.099 -0.708,-0.293 l -2,-2 c -0.391,-0.391 -0.391,-1.023 0,-1.414 0.391,-0.391 1.023,-0.391 1.414,0 l 1.367,1.367 4.301,-3.441 c 0.43,-0.345 1.061,-0.275 1.405,0.156 0.345,0.432 0.275,1.061 -0.156,1.406 l -5,4 c -0.182,0.147 -0.403,0.219 -0.623,0.219 z"
       style="fill:#0000ff"
       inkscape:connector-curvature="0" /><rect
       y="18.279585"
       x="25.313559"
       height="3.5635593"
       width="23.224577"
       id="rect3819"
       style="fill:#000000;stroke-width:1.12625766" /></g></g></svg>